{
  "sourcetv": {
    "default": "on"
  },
  "packet_rate": {
    "default": "standard",
    "very-low": "congestion"
  },
  "snapshot_buffer": {
    "default": "safe"
  },
  "packet_size": {
    "default": "speed"
  },
  "bandwidth": {
    "default": "762Kbps"
  },
  "download": {
    "default": "auto"
  },
  "lod": {
    "default": "low",
    "medium-high": "high",
    "high": "high",
    "ultra": "ultra",
    "none": ""
  },
  "lighting": {
    "default": "medium_high",
    "very-low": "very_low",
    "low": "low",
    "medium-low": "medium",
    "medium": "medium_high",
    "medium-high": "medium_high",
    "high": "very_high",
    "ultra": "ultra",
    "none": ""
  },
  "lighting_ex": {
    "default": "high",
    "very-low": "low",
    "low": "low",
    "medium-low": "low",
    "none": ""
  },
  "shadows": {
    "default": "off",
    "medium": "medium",
    "medium-high": "medium",
    "high": "high",
    "ultra": "ultra",
    "none": ""
  },
  "flashlight": {
    "default": "off",
    "high": "on",
    "ultra": "on",
    "none": ""
  },
  "effects": {
    "default": "low",
    "medium": "medium",
    "medium-high": "medium",
    "high": "high",
    "ultra": "ultra",
    "none": ""
  },
  "water": {
    "default": "high",
    "very-low": "very_low",
    "low": "low",
    "medium-low": "medium",
    "medium": "medium",
    "medium-high": "high",
    "high": "very_high",
    "ultra": "ultra",
    "none": ""
  },
  "particles": {
    "default": "low",
    "very-low": "very_low",
    "medium-high": "medium",
    "high": "high",
    "ultra": "ultra",
    "none": ""
  },
  "post_processing": {
    "default": "off",
    "medium": "low",
    "medium-high": "high",
    "high": "high",
    "ultra": "high",
    "none": ""
  },
  "pyrovision": {
    "default": "low",
    "medium-high": "medium",
    "high": "high",
    "ultra": "high",
    "none": ""
  },
  "romevision": {
    "default": "off",
    "high": "on",
    "ultra": "on",
    "none": ""
  },
  "motion_blur": {
    "default": "off",
    "none": ""
  },
  "anti_aliasing": {
    "default": "off",
    "medium-high": "msaa_4x",
    "high": "msaa_8x",
    "ultra": "msaa_8x",
    "none": ""
  },
  "texture_filter": {
    "default": "trilinear",
    "very-low": "bilinear",
    "low": "bilinear",
    "medium-high": "aniso4x",
    "high": "aniso8x",
    "ultra": "aniso16x",
    "none": ""
  },
  "characters": {
    "default": "low",
    "very-low": "very_low",
    "low": "very_low",
    "medium-high": "high",
    "high": "high",
    "ultra": "ultra",
    "none": ""
  },
  "decals": {
    "default": "off",
    "medium": "low",
    "medium-high": "low",
    "high": "medium",
    "ultra": "ultra",
    "none": ""
  },
  "decals_models": {
    "default": "off",
    "high": "low",
    "ultra": "high",
    "none": ""
  },
  "decals_art": {
    "default": "on",
    "very-low": "off",
    "low": "off",
    "medium-low": "off",
    "none": ""
  },
  "sprays": {
    "default": "off",
    "none": ""
  },
  "sillygibs": {
    "default": "auto"
  },
  "gibs": {
    "default": "off",
    "medium-high": "low",
    "high": "medium",
    "ultra": "high",
    "none": ""
  },
  "props": {
    "default": "medium",
    "very-low": "low",
    "high": "high",
    "ultra": "ultra",
    "none": ""
  },
  "ragdolls": {
    "default": "off",
    "medium-high": "medium",
    "high": "high",
    "ultra": "high",
    "none": ""
  },
  "3dsky": {
    "default": "off",
    "high": "on",
    "ultra": "on",
    "none": ""
  },
  "jigglebones": {
    "default": "off",
    "medium-high": "on",
    "high": "on",
    "ultra": "force_on",
    "none": ""
  },
  "sheens_speed": {
    "default": "slow",
    "very-low": "off"
  },
  "sheens_tint": {
    "default": "high"
  },
  "textures": {
    "default": "very_low",
    "medium-low": "low",
    "medium": "medium",
    "medium-high": "high",
    "high": "very_high",
    "ultra": "very_high",
    "none": ""
  },
  "ropes": {
    "default": "off",
    "medium-high": "low",
    "high": "high",
    "ultra": "ultra",
    "none": ""
  },
  "fpscap": {
    "default": "1000"
  },
  "vsync": {
    "default": "off"
  },
  "hud_player_model": {
    "default": "off",
    "high": "on",
    "ultra": "on",
    "none": ""
  },
  "hud_panels": {
    "default": "high",
    "very-low": "off",
    "low": "low"
  },
  "hud_avatars": {
    "default": "friends",
    "very-low": "off",
    "low": "off"
  },
  "match_hud": {
    "default": "on",
    "very-low": "off"
  },
  "messages": {
    "default": "on",
    "very-low": "off"
  },
  "killfeed": {
    "default": "on",
    "very-low": "off"
  },
  "killstreaks": {
    "default": "high",
    "very-low": "off",
    "low": "low"
  },
  "hud_achievement": {
    "default": "on",
    "very-low": "off"
  },
  "console": {
    "default": "on",
    "very-low": "off"
  },
  "htmlmotd": {
    "default": "off"
  },
  "outlines": {
    "default": "low",
    "very-low": "off",
    "low": "off",
    "high": "high",
    "ultra": "high",
    "none": ""
  },
  "dynamic_background": {
    "default": "off"
  },
  "sound": {
    "default": "low",
    "medium": "medium",
    "medium-high": "high",
    "high": "very_high",
    "ultra": "ultra",
    "none": ""
  },
  "voice_chat": {
    "default": "on",
    "very-low": "off"
  },
  "bot_skill": {
    "default": "normal",
    "very-low": "none"
  },
  "mod_support": {
    "default": "on"
  },
  "party_mode": {
    "default": "request"
  },
  "logo": {
    "default": "on",
    "very-low": "off"
  },
  "move_bind": {
    "default": "wasd"
  }
}
